{
  "images" : [
    {
      "idiom" : "universal",
      "scale" : "1x",
      "filename" : "slide1-1.png.jpg"
    },
    {
      "idiom" : "universal",
      "scale" : "2x",
      "filename" : "slide1-2.png.jpg"
    },
    {
      "idiom" : "universal",
      "scale" : "3x",
      "filename" : "slide1.png.jpg"
    }
  ],
  "info" : {
    "version" : 1,
    "author" : "xcode"
  }
}